[
	{
		"alumno": "Andres Macias",
		"nota": 9.87,
		"ranking": 7
	},
	{
		"alumno": "Josselin Vera",
		"nota": 7.97,
		"ranking": 29
	},
	{
		"alumno": "Carolina Olmedo",
		"nota": 7.58,
		"ranking": 87
	},
	{
		"alumno": "Ricardo Paredes",
		"nota": 5.02,
		"ranking": 74
	},
	{
		"alumno": "Rommel Fares",
		"nota": 5.90,
		"ranking": 67
	},
	{
		"alumno": "Cindy Morla",
		"nota": 6.32,
		"ranking": 53
	},
	{
		"alumno": "Melany Vega",
		"nota": 7.75,
		"ranking": 38
	},
	{
		"alumno": "Jose Rivera",
		"nota": 7.19,
		"ranking": 43
	},
	{
		"alumno": "Michelle Naranjo",
		"nota": 8.29,
		"ranking": 15
	}
]